%feature("docstring") gum::DiGraph
"
DiGraph represents a Directed Graph.

DiGraph() -> DiGraph
    default constructor

DiGraph(src) -> DiGraph
    Parameters:
        * **src** (*pyAgrum.DiGraph*) -- the digraph to copy
"

%feature("docstring") gum::DiGraph::addArc
"
Add an arc from tail to head.

Parameters
----------
tail : int
  the id of the tail node
head : int
  the id of the head node

Raises
------
gum.InvalidNode
  If head or tail does not belong to the graph nodes.
"

%feature("docstring") gum::DiGraph::addNode
"
Returns
-------
int
  the new NodeId
"

%feature("docstring") gum::DiGraph::addNodes
"
Add n nodes.

Parameters
----------
n : int
  the number of nodes to add.

Returns
-------
Set of int
  the new ids
"

%feature("docstring") gum::DiGraph::addNodeWithId
"
Add a node by choosing a new NodeId.

Parameters
----------
id : int
  The id of the new node

Raises
------
gum.DuplicateElement
  If the given id is already used
"

%feature("docstring") gum::DiGraph::arcs
"
Returns
-------
List
	the list of the arcs
"

%feature("docstring") gum::DiGraph::children
"
Parameters
----------
id : int
  the id of the parent

Returns
-------
Set
	the set of all the children
"

%feature("docstring") gum::DiGraph::clear
"
Remove all the nodes and arcs from the graph.
"

%feature("docstring") gum::DiGraph::empty
"
Check if the graph is empty.

Returns
-------
bool
    True if the graph is empty
"

%feature("docstring") gum::DiGraph::emptyArcs
"
Check if the graph doesn't contains arcs.

Returns
-------
bool
    True if the graph doesn't contains arcs
"

%feature("docstring") gum::DiGraph::eraseArc
"
Erase the arc between n1 and n2.

Parameters
----------
n1 : int
	the id of the tail node
n2 : int
	the id of the head node
"
%feature("docstring") gum::DiGraph::eraseChildren
"
Erase the arcs heading through the node's children.

Parameters
----------
n : int
	the id of the parent node
"

%feature("docstring") gum::DiGraph::eraseNode
"
Erase the node and all the related arcs.

Parameters
----------
id : int
	the id of the node
"

%feature("docstring") gum::DiGraph::eraseParents
"
Erase the arcs coming to the node.

Parameters
----------
n : int
	the id of the child node
"

%feature("docstring") gum::DiGraph::existsArc
"
Check if an arc exists bewteen n1 and n2.

Parameters
----------
n1 : int
	the id of the tail node
n2 : int
	the id of the head node

Returns
-------
bool
    True if the arc exists
"

%feature("docstring") gum::DiGraph::existsNode
"
Check if a node with a certain id exists in the graph.

Parameters
----------
id : int
    the checked id

Returns
-------
bool
    True if the node exists
"

%feature("docstring") gum::DiGraph::ids
"
.. note:: Deprecated in pyAgrum>0.13.0
    Please use nodes() instead
"

%feature("docstring") gum::DiGraph::nodes
"
Returns
-------
set
    the set of ids
"

%feature("docstring") gum::DiGraph::parents
"
Parameters
----------
id :
	The id of the child node

Returns
-------
Set
    the set of the parents ids.
"

%feature("docstring") gum::DiGraph::size
"
Returns
-------
int
    the number of nodes in the graph
"

%feature("docstring") gum::DiGraph::sizeArcs
"
Returns
-------
int
    the number of arcs in the graph
"

%feature("docstring") gum::DiGraph::toDot
"
Returns
-------
str
    a friendly display of the graph in DOT format 
"

%feature("docstring") gum::DiGraph::topologicalOrder
"
Returns
-------
List
    the list of the nodes Ids in a topological order

Raises
------
gum.InvalidDirectedCycle
  If this graph contains cycles
"

%feature("docstring") gum::DiGraph::hasDirectedPath
"
Check if a directedpath exists bewteen from and to.

Parameters
----------
from : int
	the id of the first node of the (possible) path
to : int
	the id of the last node of the (possible) path

Returns
-------
bool
    True if the directed path exists
"
